1 10 20
100 200 125
201 210 89
900 1000 174
7119 8155 252
854 7997 262
8846 636 262
3887 3558 238
1945 9404 262
1118 8238 262
1401 9819 262
5620 9585 262
5539 2320 238
4850 118 238
9190 4325 262
1414 6370 262
2885 5754 238
1612 5773 238
8571 9865 260
5020 2357 238
1804 9898 262
98 3454 217
8090 3967 262
4597 6352 262
4006 8783 262
8214 2403 262
6229 879 262
2656 2294 209
1761 7099 262
3733 7554 262
7472 7805 221
7854 2463 262
6894 6414 244
5402 2789 238
6730 576 262
7496 6601 257
6950 8866 252
840 6473 262
6709 3918 262
6761 7195 257
4663 3094 238
2217 1861 175
2859 644 209
4998 6036 236
977 6776 262
6162 7675 262
3068 5339 238
7347 3440 262
6237 5831 262
2065 7031 262
9027 6525 257
6653 4545 262
1138 430 179
6993 3471 262
1203 8026 262
2836 7250 262
9229 1620 262
7595 83 262
6339 3343 262
5273 976 238
5173 1569 238
36 4738 238
535 92732 351
14 141 122
7823 42828 324
25 7647 262
477 52190 324
33 713 171
8630 47563 324
56 42001 324
82 6693 262
2 9142 262
237 93136 351
43 107 119
312 29720 308
70 6199 262
245 3877 238
81 295 128
8559 52477 324
11 81935 351
87 1579 182
41 78942 351
355 4100 238
94 5945 238
372 76078 340
30 2232 183
787 10175 262
62 521 144
6191 65270 340
57 87713 351
417 9159 262
94 444 144
407 87890 351
26 52567 340
746 4973 238
14 26116 282
5 566 144
52 4048 238
30 2458 183
27 93904 351
791 9062 262
81 13482 276
192 5758 238
77 143 122
5406 73283 340
85 1246 182
976 77794 351
87 3693 217
750 32873 308
80 379 144
1596 36181 324
51 37495 324
937 4343 238
51 6047 238
484 93796 351
70 2803 209
103 17052 276
77 1740 182
386 89869 351
72 740 171
6175 89891 351
8 9584 262
959 23466 279
4 85581 351
777 5663 238
9 122 119
3357 36092 324
97 9077 262
943 43687 324
10 5044 238
125 4011 238
33 89 116
1178 81231 351
91 7621 262
867 7740 262
57 372 144
9039 16404 276
9 334 144
3354 14801 276
69 897 179
8236 41681 324
66 657 145
2040 33644 308
25 7970 262
316 89680 351
36 1881 182
323 28230 308
50 7681 262
213 10783 262
43 1544 182
669 24964 282
68 1094 179
349 88459 351
64 75984 340
937 5909 238
100 6177 262
994 66519 340
12 3500 217
861 44869 324
30 3983 238
517 5895 238
4 98627 351
770 4816 238
99 29488 308
909 1320 182
17 49476 324
970 1958 182
69 3927 238
587 69550 340
24 158 122
2135 31615 308
1 14450 276
903 1148 174
12 349 144
1040 10277 262
51 7886 262
316 42965 324
56 9869 262
983 53062 340
97 97230 351
749 9663 262
59 21966 279
847 6952 262
52 2408 183
123 13369 276
34 490 144
6591 35574 311
73 8700 262
393 17530 276
38 491 144
2959 86733 351
11 4 20
9849 18480 279
91 91 93
1997 62915 340
8 1094 179
264 2525 209
8 5940 238
230 53720 340
93 328 144
4331 19749 279
81 1186 182
249 68787 340
90 2288 183
403 53445 340
86 2093 182
755 2010 182
32 881 179
83 46628 324
76 8710 262
402 31268 308
92 8465 262
510 92310 351
7 786 171
2694 26005 282
75 37124 324
692 7877 262
19 8779 262
120 40198 324
81 7057 262
887 49401 324
97 980 179
8193 7909 252
8 8903 262
343 37227 324
77 13360 276
173 7128 262
50 634 144
5837 97774 351
39 5295 238
313 95350 351
72 148 122
3185 50281 324
98 816 171
767 23134 279
64 9924 262
17 6724 262
63 8456 262
315 88805 351
8 22331 279
369 7026 262
83 562 144
2156 90405 351
29 578 144
1097 88950 351
64 4928 238
389 64674 340
66 3167 217
484 69151 340
49 5575 238
736 27251 308
50 1779 182
361 41474 324
48 7356 262
959 50278 324
75 5978 238
892 3013 217
44 53959 340
403 5581 238
72 6350 262
266 26509 282
